codes/CPU.vcd
$date
	Tue Nov 29 20:22:54 2022
$end
$version
	Icarus Verilog
$end
$timescale
	1s
$end
$scope module MyTest $end
$var wire 5 ! s1 [4:0] $end
$var reg 2 " y [1:0] $end
$upscope $end
$scope module TestBench $end
$var reg 1 # Clk $end
$var reg 1 $ Reset $end
$var reg 1 % Start $end
$var integer 32 & counter [31:0] $end
$var integer 32 ' flush [31:0] $end
$var integer 32 ( i [31:0] $end
$var integer 32 ) outfile [31:0] $end
$var integer 32 * stall [31:0] $end
$scope module CPU $end
$var wire 32 + ID_imm_i [31:0] $end
$var wire 32 , PCstep [31:0] $end
$var wire 1 # clk_i $end
$var wire 32 - jumpimm [31:0] $end
$var wire 1 $ rst_i $end
$var wire 1 % start_i $end
$var wire 1 . stall $end
$var wire 5 / rs2_addr [4:0] $end
$var wire 5 0 rs1_addr [4:0] $end
$var wire 5 1 rd_addr [4:0] $end
$var wire 32 2 pc_in [31:0] $end
$var wire 7 3 opcode [6:0] $end
$var wire 1 4 noop $end
$var wire 32 5 nextPC [31:0] $end
$var wire 32 6 mux2_o [31:0] $end
$var wire 32 7 mux1_o [31:0] $end
$var wire 1 8 jump $end
$var wire 32 9 currentPC [31:0] $end
$var wire 32 : branch_pc [31:0] $end
$var wire 1 ; branch $end
$var wire 5 < WB_rd_addr [4:0] $end
$var wire 32 = WB_o [31:0] $end
$var wire 1 > WB_RegWrite $end
$var wire 32 ? WB_ReadData [31:0] $end
$var wire 1 @ WB_MemtoReg $end
$var wire 32 A WB_ALUrslt [31:0] $end
$var wire 32 B RS2 [31:0] $end
$var wire 32 C RS1 [31:0] $end
$var wire 1 D PCWrite $end
$var wire 32 E MUX_o [31:0] $end
$var wire 5 F MEM_rd_addr [4:0] $end
$var wire 32 G MEM_WriteData [31:0] $end
$var wire 1 H MEM_RegWrite $end
$var wire 32 I MEM_ReadData [31:0] $end
$var wire 1 J MEM_MemtoReg $end
$var wire 1 K MEM_MemWrite $end
$var wire 1 L MEM_MemRead $end
$var wire 32 M MEM_ALUrslt [31:0] $end
$var wire 32 N IFinst [31:0] $end
$var wire 32 O IDinst [31:0] $end
$var wire 32 P ID_imm_o [31:0] $end
$var wire 10 Q ID_func73 [9:0] $end
$var wire 1 R ID_RegWrite $end
$var wire 1 S ID_MemtoReg $end
$var wire 1 T ID_MemWrite $end
$var wire 1 U ID_MemRead $end
$var wire 1 V ID_ALUSrc $end
$var wire 2 W ID_ALUOp [1:0] $end
$var wire 32 X IDPC [31:0] $end
$var wire 2 Y ForwardB [1:0] $end
$var wire 2 Z ForwardA [1:0] $end
$var wire 5 [ EX_rs2_addr [4:0] $end
$var wire 5 \ EX_rs1_addr [4:0] $end
$var wire 5 ] EX_rd_addr [4:0] $end
$var wire 32 ^ EX_imm [31:0] $end
$var wire 10 _ EX_func73 [9:0] $end
$var wire 32 ` EX_data2 [31:0] $end
$var wire 32 a EX_data1 [31:0] $end
$var wire 1 b EX_RegWrite $end
$var wire 1 c EX_MemtoReg $end
$var wire 1 d EX_MemWrite $end
$var wire 1 e EX_MemRead $end
$var wire 32 f ALUrslt [31:0] $end
$var wire 1 g ALUSrc $end
$var wire 2 h ALUOp [1:0] $end
$var wire 3 i ALUCtrl [2:0] $end
$scope module ALU $end
$var wire 32 j data2_i [31:0] $end
$var wire 32 k data1_i [31:0] $end
$var wire 3 l ALUCtrl_i [2:0] $end
$var reg 1 m Zero_o $end
$var reg 32 n data_o [31:0] $end
$upscope $end
$scope module ALU_Control $end
$var wire 12 o op [11:0] $end
$var wire 10 p func73_i [9:0] $end
$var wire 2 q ALUOp_i [1:0] $end
$var reg 3 r ALUCtrl_o [2:0] $end
$upscope $end
$scope module Add_PC $end
$var wire 32 s data2_in [31:0] $end
$var wire 32 t data1_in [31:0] $end
$var reg 32 u data_o [31:0] $end
$upscope $end
$scope module Control $end
$var wire 7 v opcode [6:0] $end
$var wire 1 $ rst_i $end
$var wire 3 w reduced [2:0] $end
$var wire 1 4 noop $end
$var reg 2 x ALUOp_o [1:0] $end
$var reg 1 V ALUSrc_o $end
$var reg 1 U MemRead_o $end
$var reg 1 T MemWrite_o $end
$var reg 1 S MemtoReg_o $end
$var reg 1 R RegWrite_o $end
$var reg 1 ; branch_o $end
$upscope $end
$scope module Data_Memory $end
$var wire 1 # clk_i $end
$var wire 32 y data_o [31:0] $end
$var wire 32 z data_i [31:0] $end
$var wire 32 { addr_i [31:0] $end
$var wire 1 K MemWrite_i $end
$var wire 1 L MemRead_i $end
$upscope $end
$scope module EX_MEM $end
$var wire 32 | ALU_rslt_i [31:0] $end
$var wire 1 # clk_i $end
$var wire 1 $ rst_i $end
$var wire 32 } WriteData_i [31:0] $end
$var wire 1 b RegWrite_i $end
$var wire 1 c MemtoReg_i $end
$var wire 1 d MemWrite_i $end
$var wire 1 e MemRead_i $end
$var wire 5 ~ EX_MEM_Rd_i [4:0] $end
$var reg 32 !" ALU_rslt_o [31:0] $end
$var reg 5 "" EX_MEM_Rd_o [4:0] $end
$var reg 1 L MemRead_o $end
$var reg 1 K MemWrite_o $end
$var reg 1 J MemtoReg_o $end
$var reg 1 H RegWrite_o $end
$var reg 32 #" WriteData_o [31:0] $end
$upscope $end
$scope module FU $end
$var wire 5 $" EX_MEME_Rd [4:0] $end
$var wire 1 H EX_MEM_RegWrite $end
$var wire 1 > MEM_WB_RegWrite $end
$var wire 5 %" MEM_WB_Rd [4:0] $end
$var wire 5 &" ID_EX_Rs2 [4:0] $end
$var wire 5 '" ID_EX_Rs1 [4:0] $end
$var reg 2 (" ForwardA [1:0] $end
$var reg 2 )" ForwardB [1:0] $end
$upscope $end
$scope module HDU $end
$var wire 5 *" ID_Rs1_addr [4:0] $end
$var wire 5 +" ID_Rs2_addr [4:0] $end
$var wire 1 e isMemRead $end
$var wire 5 ," EX_Rd_addr [4:0] $end
$var reg 1 D PCWrite $end
$var reg 1 4 noop $end
$var reg 1 . stall $end
$upscope $end
$scope module ID_EX $end
$var wire 2 -" ALUOp_i [1:0] $end
$var wire 1 V ALUSrc_i $end
$var wire 5 ." EX_rd_i [4:0] $end
$var wire 5 /" EX_rs1_i [4:0] $end
$var wire 5 0" EX_rs2_i [4:0] $end
$var wire 1 U MemRead_i $end
$var wire 1 T MemWrite_i $end
$var wire 1 S MemtoReg_i $end
$var wire 1 R RegWrite_i $end
$var wire 1 # clk_i $end
$var wire 10 1" func73_i [9:0] $end
$var wire 1 $ rst_i $end
$var wire 32 2" imm_i [31:0] $end
$var wire 32 3" data2_i [31:0] $end
$var wire 32 4" data1_i [31:0] $end
$var reg 2 5" ALUOp_o [1:0] $end
$var reg 1 g ALUSrc_o $end
$var reg 5 6" EX_rd_o [4:0] $end
$var reg 5 7" EX_rs1_o [4:0] $end
$var reg 5 8" EX_rs2_o [4:0] $end
$var reg 1 e MemRead_o $end
$var reg 1 d MemWrite_o $end
$var reg 1 c MemtoReg_o $end
$var reg 1 b RegWrite_o $end
$var reg 32 9" data1_o [31:0] $end
$var reg 32 :" data2_o [31:0] $end
$var reg 10 ;" func73_o [9:0] $end
$var reg 32 <" imm_o [31:0] $end
$upscope $end
$scope module IF_ID $end
$var wire 1 # clk_i $end
$var wire 1 8 flush_i $end
$var wire 1 . stall_i $end
$var wire 32 =" pc_i [31:0] $end
$var wire 32 >" instr_i [31:0] $end
$var reg 32 ?" instr_o [31:0] $end
$var reg 32 @" pc_o [31:0] $end
$upscope $end
$scope module ImmGen $end
$var wire 32 A" data_i [31:0] $end
$var wire 10 B" signal [9:0] $end
$var reg 32 C" data_o [31:0] $end
$upscope $end
$scope module Instruction_Memory $end
$var wire 32 D" instr_o [31:0] $end
$var wire 32 E" addr_i [31:0] $end
$upscope $end
$scope module JumpAdder $end
$var wire 32 F" data1_in [31:0] $end
$var wire 32 G" data2_in [31:0] $end
$var reg 32 H" data_o [31:0] $end
$upscope $end
$scope module MEM_WB $end
$var wire 32 I" ALU_rslt_i [31:0] $end
$var wire 5 J" MEM_WB_Rd_i [4:0] $end
$var wire 1 J MemtoReg_i $end
$var wire 32 K" ReadData_i [31:0] $end
$var wire 1 H RegWrite_i $end
$var wire 1 # clk_i $end
$var reg 32 L" ALU_rslt_o [31:0] $end
$var reg 5 M" MEM_WB_Rd_o [4:0] $end
$var reg 1 @ MemtoReg_o $end
$var reg 32 N" ReadData_o [31:0] $end
$var reg 1 > RegWrite_o $end
$upscope $end
$scope module MUX $end
$var wire 32 O" data1_i [31:0] $end
$var wire 1 g select_i $end
$var wire 32 P" data0_i [31:0] $end
$var reg 32 Q" data_o [31:0] $end
$upscope $end
$scope module PC $end
$var wire 1 D PCWrite_i $end
$var wire 1 # clk_i $end
$var wire 1 $ rst_i $end
$var wire 1 % start_i $end
$var wire 32 R" pc_i [31:0] $end
$var reg 32 S" pc_o [31:0] $end
$upscope $end
$scope module PCmux $end
$var wire 32 T" data0_i [31:0] $end
$var wire 32 U" data1_i [31:0] $end
$var wire 1 8 select_i $end
$var reg 32 V" data_o [31:0] $end
$upscope $end
$scope module Registers $end
$var wire 5 W" RDaddr_i [4:0] $end
$var wire 5 X" RS1addr_i [4:0] $end
$var wire 5 Y" RS2addr_i [4:0] $end
$var wire 1 > RegWrite_i $end
$var wire 1 # clk_i $end
$var wire 32 Z" RS2data_o [31:0] $end
$var wire 32 [" RS1data_o [31:0] $end
$var wire 32 \" RDdata_i [31:0] $end
$upscope $end
$scope module WB_MUX $end
$var wire 32 ]" data0_i [31:0] $end
$var wire 32 ^" data1_i [31:0] $end
$var wire 1 @ select_i $end
$var reg 32 _" data_o [31:0] $end
$upscope $end
$scope module mux1 $end
$var wire 32 `" data00_i [31:0] $end
$var wire 32 a" data01_i [31:0] $end
$var wire 32 b" data10_i [31:0] $end
$var wire 32 c" data11_i [31:0] $end
$var wire 2 d" select_i [1:0] $end
$var reg 32 e" data_o [31:0] $end
$upscope $end
$scope module mux2 $end
$var wire 32 f" data00_i [31:0] $end
$var wire 32 g" data01_i [31:0] $end
$var wire 32 h" data10_i [31:0] $end
$var wire 32 i" data11_i [31:0] $end
$var wire 2 j" select_i [1:0] $end
$var reg 32 k" data_o [31:0] $end
$upscope $end
$upscope $end
$upscope $end
$enddefinitions $end
#0
$dumpvars
bx k"
b0 j"
bz i"
bx h"
bx g"
bx f"
bx e"
b0 d"
bz c"
bx b"
bx a"
bx `"
bx _"
bx ^"
bx ]"
bx \"
bx ["
bx Z"
bx Y"
bx X"
bx W"
b100 V"
bx U"
b100 T"
b0 S"
b100 R"
bx Q"
bx P"
bx O"
bx N"
bx M"
bx L"
bx K"
bx J"
bx I"
bx H"
bx G"
bx F"
b0 E"
b110000010011 D"
bx C"
bx B"
bx A"
bx @"
bx ?"
b110000010011 >"
b0 ="
bx <"
bx ;"
bx :"
bx 9"
bx 8"
bx 7"
bx 6"
bx 5"
bx 4"
bx 3"
bx 2"
bx 1"
bx 0"
bx /"
bx ."
b0 -"
bx ,"
bx +"
bx *"
b0 )"
b0 ("
bx '"
bx &"
bx %"
bx $"
bx #"
bx ""
bx !"
bx ~
bx }
bx |
bx {
bx z
bx y
b0 x
bx w
bx v
b100 u
b0 t
b100 s
bx r
bx q
bx p
bx o
bx n
xm
bx l
bx k
bx j
bx i
bx h
xg
bx f
xe
xd
xc
0b
bx a
bx `
bx _
bx ^
bx ]
bx \
bx [
b0 Z
b0 Y
bx X
b0 W
0V
0U
0T
0S
0R
bx Q
bx P
bx O
b110000010011 N
bx M
xL
xK
xJ
bx I
0H
bx G
bx F
bx E
1D
bx C
bx B
bx A
x@
bx ?
x>
bx =
bx <
0;
bx :
b0 9
08
bx 7
bx 6
b100 5
04
bx 3
b100 2
bx 1
bx 0
bx /
0.
bx -
b100 ,
bx +
b0 *
b11 )
b100000 (
b0 '
b0 &
0%
1$
1#
b0 "
b10100 !
$end
#12
1%
0$
#25
0#
#50
b0 :
b0 H"
b0 U"
1R
1V
b11 W
b11 x
b11 -"
0m
b1000 2
b1000 R"
b1000 V"
b0 -
b0 G"
b0 P
b0 2"
b0 C"
b1 w
b0 B
b0 3"
b0 Z"
b0 C
b0 4"
b0 ["
b0 Q
b0 1"
b10011 3
b10011 v
b11000 1
b11000 ."
b0 /
b0 +"
b0 0"
b0 Y"
b0 0
b0 *"
b0 /"
b0 X"
b10011 B"
b0 i
b0 l
b0 r
b10000000000110100010011 N
b10000000000110100010011 >"
b10000000000110100010011 D"
b1000 5
b1000 u
b1000 T"
0>
b110000010011 +
b110000010011 A"
b110000010011 O
b110000010011 ?"
b0 X
b0 @"
b0 F"
0g
b0xxxxxxxxxx o
b0 h
b0 q
b0 5"
0d
0e
0c
b100 9
b100 t
b100 ="
b100 E"
b100 S"
b1 &
1#
#75
0#
#100
1m
b0 f
b0 n
b0 |
b1100 2
b1100 R"
b1100 V"
b100 -
b100 G"
b100 P
b100 2"
b100 C"
b0 6
b0 }
b0 P"
b0 k"
b0 7
b0 k
b0 e"
b0 E
b0 j
b0 Q"
b11010 1
b11010 ."
b100 /
b100 +"
b100 0"
b100 Y"
b1000 :
b1000 H"
b1000 U"
b0 I
b0 y
b0 K"
b10000000000111000010011 N
b10000000000111000010011 >"
b10000000000111000010011 D"
b1100 5
b1100 u
b1100 T"
b10000000000110100010011 +
b10000000000110100010011 A"
b10000000000110100010011 O
b10000000000110100010011 ?"
b100 X
b100 @"
b100 F"
0K
0L
0J
b1000 9
b1000 t
b1000 ="
b1000 E"
b1000 S"
b11000 ]
b11000 ~
b11000 ,"
b11000 6"
b0 [
b0 &"
b0 8"
b0 \
b0 '"
b0 7"
b0 _
b0 p
b0 ;"
b0 ^
b0 <"
b0 O"
b0 `
b0 :"
b0 f"
b0 a
b0 9"
b0 `"
1g
b110000000000 o
b11 h
b11 q
b11 5"
1b
b10 &
1#
#125
0#
#150
0m
b100 f
b100 n
b100 |
b10000 2
b10000 R"
b10000 V"
b100 E
b100 j
b100 Q"
b11100 1
b11100 ."
b1100 :
b1100 H"
b1100 U"
b11111111111100000000011110010011 N
b11111111111100000000011110010011 >"
b11111111111100000000011110010011 D"
b10000 5
b10000 u
b10000 T"
b0 ?
b0 N"
b0 ^"
0@
b11000 F
b11000 ""
b11000 $"
b11000 J"
b0 G
b0 z
b0 #"
b0 M
b0 {
b0 !"
b0 I"
b0 b"
b0 h"
1H
b10000000000111000010011 +
b10000000000111000010011 A"
b10000000000111000010011 O
b10000000000111000010011 ?"
b1000 X
b1000 @"
b1000 F"
b11010 ]
b11010 ~
b11010 ,"
b11010 6"
b100 [
b100 &"
b100 8"
b100 ^
b100 <"
b100 O"
b1100 9
b1100 t
b1100 ="
b1100 E"
b1100 S"
b11 &
1#
#175
0#
#200
b10100 2
b10100 R"
b10100 V"
b11111111111111111111111111111111 -
b11111111111111111111111111111111 G"
b11111111111111111111111111111111 P
b11111111111111111111111111111111 2"
b11111111111111111111111111111111 C"
b0 =
b0 \"
b0 _"
b0 a"
b0 g"
b111110 B
b111110 3"
b111110 Z"
b1111111000 Q
b1111111000 1"
b1111 1
b1111 ."
b11111 /
b11111 +"
b11111 0"
b11111 Y"
b1011 :
b1011 H"
b1011 U"
b11110011010000110010110011 N
b11110011010000110010110011 >"
b11110011010000110010110011 D"
b10100 5
b10100 u
b10100 T"
b11111111111100000000011110010011 +
b11111111111100000000011110010011 A"
b11111111111100000000011110010011 O
b11111111111100000000011110010011 ?"
b1100 X
b1100 @"
b1100 F"
b11010 F
b11010 ""
b11010 $"
b11010 J"
b100 M
b100 {
b100 !"
b100 I"
b100 b"
b100 h"
b11000 <
b11000 %"
b11000 M"
b11000 W"
b0 A
b0 L"
b0 ]"
1>
b10000 9
b10000 t
b10000 ="
b10000 E"
b10000 S"
b11100 ]
b11100 ~
b11100 ,"
b11100 6"
b100 &
1#
#225
0#
#250
b11111111111111111111111111111111 f
b11111111111111111111111111111111 n
b11111111111111111111111111111111 |
0V
b10 W
b10 x
b10 -"
b11000 2
b11000 R"
b11000 V"
b100 =
b100 \"
b100 _"
b100 a"
b100 g"
b0 -
b0 G"
b0 P
b0 2"
b0 C"
b11111111111111111111111111111111 E
b11111111111111111111111111111111 j
b11111111111111111111111111111111 Q"
b111110 6
b111110 }
b111110 P"
b111110 k"
b11 w
b111000 B
b111000 3"
b111000 Z"
b100 C
b100 4"
b100 ["
b1000 Q
b1000 1"
b110011 3
b110011 v
b11001 1
b11001 ."
b11100 /
b11100 +"
b11100 0"
b11100 Y"
b11010 0
b11010 *"
b11010 /"
b11010 X"
b110011 B"
b10000 :
b10000 H"
b10000 U"
b11111111111111010000110100010011 N
b11111111111111010000110100010011 >"
b11111111111111010000110100010011 D"
b11000 5
b11000 u
b11000 T"
b11010 <
b11010 %"
b11010 M"
b11010 W"
b100 A
b100 L"
b100 ]"
b11100 F
b11100 ""
b11100 $"
b11100 J"
b11110011010000110010110011 +
b11110011010000110010110011 A"
b11110011010000110010110011 O
b11110011010000110010110011 ?"
b10000 X
b10000 @"
b10000 F"
b1111 ]
b1111 ~
b1111 ,"
b1111 6"
b11111 [
b11111 &"
b11111 8"
b111111111000 o
b1111111000 _
b1111111000 p
b1111111000 ;"
b11111111111111111111111111111111 ^
b11111111111111111111111111111111 <"
b11111111111111111111111111111111 O"
b111110 `
b111110 :"
b111110 f"
b10100 9
b10100 t
b10100 ="
b10100 E"
b10100 S"
b101 &
1#
#275
0#
#300
b10000 f
b10000 n
b10000 |
1V
b11 W
b11 x
b11 -"
b11100 2
b11100 R"
b11100 V"
b11111111111111111111111111111111 -
b11111111111111111111111111111111 G"
b11111111111111111111111111111111 P
b11111111111111111111111111111111 2"
b11111111111111111111111111111111 C"
b100 6
b100 }
b100 P"
b100 k"
b100 7
b100 k
b100 e"
b100 E
b100 j
b100 Q"
b10 i
b10 l
b10 r
b1 w
b111110 B
b111110 3"
b111110 Z"
b1111111000 Q
b1111111000 1"
b10011 3
b10011 v
b11010 1
b11010 ."
b11111 /
b11111 +"
b11111 0"
b11111 Y"
b10011 B"
b10011 :
b10011 H"
b10011 U"
b11001010110110000011 N
b11001010110110000011 >"
b11001010110110000011 D"
b11100 5
b11100 u
b11100 T"
b1 Y
b1 )"
b1 j"
b11111111111111010000110100010011 +
b11111111111111010000110100010011 A"
b11111111111111010000110100010011 O
b11111111111111010000110100010011 ?"
b10100 X
b10100 @"
b10100 F"
b1111 F
b1111 ""
b1111 $"
b1111 J"
b111110 G
b111110 z
b111110 #"
b11111111111111111111111111111111 M
b11111111111111111111111111111111 {
b11111111111111111111111111111111 !"
b11111111111111111111111111111111 I"
b11111111111111111111111111111111 b"
b11111111111111111111111111111111 h"
b11100 <
b11100 %"
b11100 M"
b11100 W"
b11000 9
b11000 t
b11000 ="
b11000 E"
b11000 S"
b11001 ]
b11001 ~
b11001 ,"
b11001 6"
b11100 [
b11100 &"
b11100 8"
b11010 \
b11010 '"
b11010 7"
b1000 _
b1000 p
b1000 ;"
b0 ^
b0 <"
b0 O"
b111000 `
b111000 :"
b111000 f"
b100 a
b100 9"
b100 `"
0g
b100000001000 o
b10 h
b10 q
b10 5"
b110 &
1#
#325
0#
#350
b11 f
b11 n
b11 |
1S
1U
b0 W
b0 x
b0 -"
b111110 6
b111110 }
b111110 P"
b111110 k"
b100000 2
b100000 R"
b100000 V"
b11111111111111111111111111111111 =
b11111111111111111111111111111111 \"
b11111111111111111111111111111111 _"
b11111111111111111111111111111111 a"
b11111111111111111111111111111111 g"
b0 -
b0 G"
b0 P
b0 2"
b0 C"
b11111111111111111111111111111111 E
b11111111111111111111111111111111 j
b11111111111111111111111111111111 Q"
b0 i
b0 l
b0 r
b0 w
b0 B
b0 3"
b0 Z"
b11111111111111111111111111100111 C
b11111111111111111111111111100111 4"
b11111111111111111111111111100111 ["
b10 Q
b10 1"
b11 3
b11 v
b11011 1
b11011 ."
b0 /
b0 +"
b0 0"
b0 Y"
b11001 0
b11001 *"
b11001 /"
b11001 X"
b100000011 B"
b11000 :
b11000 H"
b11000 U"
b0 Y
b0 )"
b0 j"
b1101111000000110000110011 N
b1101111000000110000110011 >"
b1101111000000110000110011 D"
b100000 5
b100000 u
b100000 T"
b1111 <
b1111 %"
b1111 M"
b1111 W"
b11111111111111111111111111111111 A
b11111111111111111111111111111111 L"
b11111111111111111111111111111111 ]"
b11001 F
b11001 ""
b11001 $"
b11001 J"
b100 G
b100 z
b100 #"
b10000 M
b10000 {
b10000 !"
b10000 I"
b10000 b"
b10000 h"
b11001010110110000011 +
b11001010110110000011 A"
b11001010110110000011 O
b11001010110110000011 ?"
b11000 X
b11000 @"
b11000 F"
b11010 ]
b11010 ~
b11010 ,"
b11010 6"
b11111 [
b11111 &"
b11111 8"
b1111111000 _
b1111111000 p
b1111111000 ;"
b11111111111111111111111111111111 ^
b11111111111111111111111111111111 <"
b11111111111111111111111111111111 O"
b111110 `
b111110 :"
b111110 f"
1g
b111111111000 o
b11 h
b11 q
b11 5"
b11100 9
b11100 t
b11100 ="
b11100 E"
b11100 S"
b111 &
1#
#375
0#
#400
b10000 f
b10000 n
b10000 |
0S
0U
0V
0R
b100100 2
b100100 R"
b100100 V"
b10000 =
b10000 \"
b10000 _"
b10000 a"
b10000 g"
b0 E
b0 j
b0 Q"
b0 6
b0 }
b0 P"
b0 k"
b10000 7
b10000 k
b10000 e"
b11 w
b11111111111111111111111111100101 B
b11111111111111111111111111100101 3"
b11111111111111111111111111100101 Z"
0D
1.
14
b0 C
b0 4"
b0 ["
b0 Q
b0 1"
b110011 3
b110011 v
b11000 1
b11000 ."
b11011 /
b11011 +"
b11011 0"
b11011 Y"
b11000 0
b11000 *"
b11000 /"
b11000 X"
b110011 B"
b11100 :
b11100 H"
b11100 U"
b111111010000010001100011 N
b111111010000010001100011 >"
b111111010000010001100011 D"
b100100 5
b100100 u
b100100 T"
b1 Z
b1 ("
b1 d"
b1101111000000110000110011 +
b1101111000000110000110011 A"
b1101111000000110000110011 O
b1101111000000110000110011 ?"
b11100 X
b11100 @"
b11100 F"
b11010 F
b11010 ""
b11010 $"
b11010 J"
b111110 G
b111110 z
b111110 #"
b11 M
b11 {
b11 !"
b11 I"
b11 b"
b11 h"
b11001 <
b11001 %"
b11001 M"
b11001 W"
b10000 A
b10000 L"
b10000 ]"
b100000 9
b100000 t
b100000 ="
b100000 E"
b100000 S"
b11011 ]
b11011 ~
b11011 ,"
b11011 6"
b0 [
b0 &"
b0 8"
b11001 \
b11001 '"
b11001 7"
b10 _
b10 p
b10 ;"
b0 ^
b0 <"
b0 O"
b0 `
b0 :"
b0 f"
b11111111111111111111111111100111 a
b11111111111111111111111111100111 9"
b11111111111111111111111111100111 `"
b10 o
b0 h
b0 q
b0 5"
1e
1c
b1000 &
1#
#425
0#
#450
0m
b10000 f
b10000 n
b10000 |
b10000 E
b10000 j
b10000 Q"
b0 7
b0 k
b0 e"
1R
b10 W
b10 x
b10 -"
b11 =
b11 \"
b11 _"
b11 a"
b11 g"
b10000 6
b10000 }
b10000 P"
b10000 k"
b11101 I
b11101 y
b11101 K"
b10 Y
b10 )"
b10 j"
b0 Z
b0 ("
b0 d"
1D
0.
04
b11010 <
b11010 %"
b11010 M"
b11010 W"
b11 A
b11 L"
b11 ]"
b11011 F
b11011 ""
b11011 $"
b11011 J"
b0 G
b0 z
b0 #"
b10000 M
b10000 {
b10000 !"
b10000 I"
b10000 b"
b10000 h"
1L
1J
b11000 ]
b11000 ~
b11000 ,"
b11000 6"
b11011 [
b11011 &"
b11011 8"
b11000 \
b11000 '"
b11000 7"
b0 o
b0 _
b0 p
b0 ;"
b11111111111111111111111111100101 `
b11111111111111111111111111100101 :"
b11111111111111111111111111100101 f"
b0 a
b0 9"
b0 `"
0g
0e
0c
0b
b1001 &
b1 *
1#
#475
0#
#500
b11101 f
b11101 n
b11101 |
b11101 E
b11101 j
b11101 Q"
0R
1;
b1 W
b1 x
b1 -"
b11101 6
b11101 }
b11101 P"
b11101 k"
b101000 2
b101000 R"
b101000 V"
b1000 -
b1000 G"
b1000 P
b1000 2"
b1000 C"
b11101 =
b11101 \"
b11101 _"
b11101 a"
b11101 g"
b110 w
b11 C
b11 4"
b11 ["
b11111111111111111111111111111111 B
b11111111111111111111111111111111 3"
b11111111111111111111111111111111 Z"
b1100011 3
b1100011 v
b1000 1
b1000 ."
b1111 /
b1111 +"
b1111 0"
b1111 Y"
b11010 0
b11010 *"
b11010 /"
b11010 X"
b1100011 B"
b101000 :
b101000 H"
b101000 U"
b0 I
b0 y
b0 K"
b1 Y
b1 )"
b1 j"
b11111110000000000000011011100011 N
b11111110000000000000011011100011 >"
b11111110000000000000011011100011 D"
b101000 5
b101000 u
b101000 T"
b111111010000010001100011 +
b111111010000010001100011 A"
b111111010000010001100011 O
b111111010000010001100011 ?"
b100000 X
b100000 @"
b100000 F"
b11000 F
b11000 ""
b11000 $"
b11000 J"
b10000 G
b10000 z
b10000 #"
0L
0J
0H
b11011 <
b11011 %"
b11011 M"
b11011 W"
b11101 ?
b11101 N"
b11101 ^"
b10000 A
b10000 L"
b10000 ]"
1@
b100100 9
b100100 t
b100100 ="
b100100 E"
b100100 S"
b100000000000 o
b10 h
b10 q
b10 5"
1b
b1010 &
1#
#525
0#
#550
b11111111111111111111111111111111 E
b11111111111111111111111111111111 j
b11111111111111111111111111111111 Q"
b10 f
b10 n
b10 |
b11111111111111111111111111111111 6
b11111111111111111111111111111111 }
b11111111111111111111111111111111 P"
b11111111111111111111111111111111 k"
b10000 2
b10000 R"
b10000 V"
b10000 =
b10000 \"
b10000 _"
b10000 a"
b10000 g"
b11111111111111111111111111101100 -
b11111111111111111111111111101100 G"
b11111111111111111111111111101100 P
b11111111111111111111111111101100 2"
b11111111111111111111111111101100 C"
b11 7
b11 k
b11 e"
18
b0 B
b0 3"
b0 Z"
b0 C
b0 4"
b0 ["
b1111111000 Q
b1111111000 1"
b1101 1
b1101 ."
b0 /
b0 +"
b0 0"
b0 Y"
b0 0
b0 *"
b0 /"
b0 X"
b10000 :
b10000 H"
b10000 U"
b0 Y
b0 )"
b0 j"
b1100000000010111000100011 N
b1100000000010111000100011 >"
b1100000000010111000100011 D"
b101100 5
b101100 u
b101100 T"
b11000 <
b11000 %"
b11000 M"
b11000 W"
b0 ?
b0 N"
b0 ^"
0@
0>
b11101 G
b11101 z
b11101 #"
b11101 M
b11101 {
b11101 !"
b11101 I"
b11101 b"
b11101 h"
1H
b11111110000000000000011011100011 +
b11111110000000000000011011100011 A"
b11111110000000000000011011100011 O
b11111110000000000000011011100011 ?"
b100100 X
b100100 @"
b100100 F"
b1000 ]
b1000 ~
b1000 ,"
b1000 6"
b1111 [
b1111 &"
b1111 8"
b11010 \
b11010 '"
b11010 7"
b1000 ^
b1000 <"
b1000 O"
b11111111111111111111111111111111 `
b11111111111111111111111111111111 :"
b11111111111111111111111111111111 f"
b11 a
b11 9"
b11 `"
b10000000000 o
b1 h
b1 q
b1 5"
0b
b101000 9
b101000 t
b101000 ="
b101000 E"
b101000 S"
b1011 &
1#
#575
0#
#600
1m
b0 E
b0 j
b0 Q"
b0 f
b0 n
b0 |
08
1S
1R
1U
0;
1V
b0 W
b0 x
b0 -"
b10100 2
b10100 R"
b10100 V"
b0 -
b0 G"
b0 P
b0 2"
b0 C"
b11101 =
b11101 \"
b11101 _"
b11101 a"
b11101 g"
b0 6
b0 }
b0 P"
b0 k"
b0 7
b0 k
b0 e"
b0 w
b0 Q
b0 1"
b0 3
b0 v
b0 1
b0 ."
b0 B"
b0 :
b0 H"
b0 U"
b11110011010000110010110011 N
b11110011010000110010110011 >"
b11110011010000110010110011 D"
b10100 5
b10100 u
b10100 T"
b0 +
b0 A"
b0 O
b0 ?"
b0 X
b0 @"
b0 F"
b1000 F
b1000 ""
b1000 $"
b1000 J"
b11111111111111111111111111111111 G
b11111111111111111111111111111111 z
b11111111111111111111111111111111 #"
b10 M
b10 {
b10 !"
b10 I"
b10 b"
b10 h"
0H
b11101 A
b11101 L"
b11101 ]"
1>
b10000 9
b10000 t
b10000 ="
b10000 E"
b10000 S"
b1101 ]
b1101 ~
b1101 ,"
b1101 6"
b0 [
b0 &"
b0 8"
b0 \
b0 '"
b0 7"
b11111111000 o
b1111111000 _
b1111111000 p
b1111111000 ;"
b11111111111111111111111111101100 ^
b11111111111111111111111111101100 <"
b11111111111111111111111111101100 O"
b0 `
b0 :"
b0 f"
b0 a
b0 9"
b0 `"
b1100 &
b1 '
1#
#625
0#
#650
0S
0U
0V
b10 W
b10 x
b10 -"
b11000 2
b11000 R"
b11000 V"
b10 =
b10 \"
b10 _"
b10 a"
b10 g"
b11 w
b100 B
b100 3"
b100 Z"
b11 C
b11 4"
b11 ["
b1000 Q
b1000 1"
b110011 3
b110011 v
b11001 1
b11001 ."
b11100 /
b11100 +"
b11100 0"
b11100 Y"
b11010 0
b11010 *"
b11010 /"
b11010 X"
b110011 B"
b10000 :
b10000 H"
b10000 U"
b11111111111111010000110100010011 N
b11111111111111010000110100010011 >"
b11111111111111010000110100010011 D"
b11000 5
b11000 u
b11000 T"
b1000 <
b1000 %"
b1000 M"
b1000 W"
b10 A
b10 L"
b10 ]"
0>
b1101 F
b1101 ""
b1101 $"
b1101 J"
b0 G
b0 z
b0 #"
b0 M
b0 {
b0 !"
b0 I"
b0 b"
b0 h"
b11110011010000110010110011 +
b11110011010000110010110011 A"
b11110011010000110010110011 O
b11110011010000110010110011 ?"
b10000 X
b10000 @"
b10000 F"
b0 ]
b0 ~
b0 ,"
b0 6"
b0 _
b0 p
b0 ;"
b0 ^
b0 <"
b0 O"
1g
b0 o
b0 h
b0 q
b0 5"
1e
1c
1b
b10100 9
b10100 t
b10100 ="
b10100 E"
b10100 S"
b1101 &
1#
#675
0#
